…
spilloverDGP22 <- spilloverDGP %>% 
  filter(treat == 0, time == 1) %>% 
  select(id, dist) %>% 
  mutate(distance = cut(dist, cuts, include.lowest = FALSE)) %>% 
  select(id, distance)

spilloverDGP <- spilloverDGP %>% 
  left_join(spilloverDGP21) %>% 
  left_join(spilloverDGP22) %>% 
  mutate(treated = ifelse(is.na(treated), "no", "yes"))
#> Joining, by = "id"
#> Joining, by = "id"
spilloverDGP  
#> # A tibble: 1,000 x 10
#>       id  dist         x  time treat        y1       y2       y3 treated
#>    <int> <dbl>     <dbl> <int> <int>     <dbl>    <dbl>    <dbl>   <chr>
#>  1     1  0.00 0.7735721     0     0  3.923192 3.096643 13.31439      no
#>  2     1  0.25 0.7735721     1     0 10.437510 8.877026 14.66957      no
#>  3     2  0.00 0.8924938     0     0  3.302063 4.381316 14.71550      no
#>  4     2  0.50 0.8924938     1     0  9.384268 8.819533 14.44591      no
#>  5     3  0.00 0.7974548     0     0  5.920908 2.574780 14.31268      no
#>  6     3  0.75 0.7974548     1     0 10.604140 8.025814 14.73039      no
#>  7     4  0.00 0.2268097     0     0  2.640629 3.574981 14.22123      no
#>  8     4  1.00 0.2268097     1     0  6.870143 9.278002 11.83855      no
#>  9     5  0.00 0.0874876     0     0  4.320655 3.107874 11.86885      no
#> 10     5  1.25 0.0874876     1     0  9.300032 9.220352 12.40277      no
#> # ... with 990 more rows, and 1 more variables: distance <fctr>
…
